@startuml
hide circle
hide methods

class "<DataType>\nAdresse" {
numero : Integer
nomrue : String
{field} codePostal: Integer(5)
ville : String
pays : String
}


class Personne {
	email : String
	pseudo : String {key}
	nom : String
	prénom : String
	date_naissance : Date
	lien_photo : String
	mot_de_passe : String
        numero : String
        Adresse : adresse
        date_inscription : Date
        date_derniere_connexion : Date
        Formation : XMLType
}

class Superadministrateur{

}

class Compétence {
	nom : String {key}
	description : String
	niveau : int[0..5]
	commentaire : string
} 

class Groupe {
	nom : String {key}
	description : String
	date_creation : Date
}

class Entreprise {
	{field} siren : int(9) {key}
	{field} nic : int(5)
	nom : String
	secteur : String
	nb_employes : int
	pays : String
    logo_url : String
}
     

class Dossier {
	nom : String {key}
        description : String
}

class Message {
	titre_et_contenu : XMLType
	date_publication : DateTime
	est_commentable : Boolean
	supprimé : Boolean
    date_derniere_modification : DateTime
}

class Type {
	nom : String {key} 
}

class Relation {
	type_lien : String
}

class Adhesion {
	adhesion_validee : Boolean
        date_demande : Date
}

class Bannissement {
	debut_bannissement : Date
	fin_bannissement : Date
}

class Experience {
	début : Date
	fin : Date
	poste : String
	description : String
	niveau : int[0..5]
    commentaire : String
}


Bannissement "*" -up- "1" Personne : banni par
Personne *-- "*" Compétence
Personne "*" -- "*" Entreprise
(Personne, Entreprise) .. Experience
Personne "*" -- "*" Personne
(Personne, Personne) .. Relation
Personne "*" -up- "*"  Groupe
(Personne, Groupe) .. Adhesion
Personne "1..*" -up- "*" Groupe : administre
Personne "*" -- "*" Groupe : banni de
(Personne, Groupe) .. Bannissement
Personne "1" -up- "*" Groupe : créé
Personne "*" -- "*" Message : aime
Groupe "0..1" -- "*" Groupe : est sous groupe de
Dossier "1..*" -right- "*" Message : appartient à
Message "*" -- "1" Type : correspond à
Personne "1" -- "*" Message : est l'auteur de 
Message "*" -- "0..1" Groupe : est posté dans
Message "0..1" -- "*" Message : réponse
Superadministrateur "0..1" -- "*" Groupe : supprime
Superadministrateur --|> Personne
@enduml