@startuml
hide circle
hide methods

class "<DataType>\nAdresse" {
numero : Integer
nomrue : String
{field} codePostal: Integer(5)
ville : String
pays : String
}

class "<DataType>\nCompétenceT" {
nom : String
description : String
expertise : Integer[0..5]
}

class Personne {
	email : String
	pseudo : String {key}
	nom : String
	prénom : String
	date_naissance : Date
	lien_photo : String
	mot_de_passe : String
        numero[0..*] : String
        date_inscription : Date
        date_derniere_connexion : Date
        adresse : Adresse
        competences[0..*] : CompétenceT
}

class Superadministrateur{

}

class Groupe {
	nom : String {key}
	description : String
	date_creation : Date
}

class Entreprise {
	{field} siren : int(9) {key}
	{field} nic : int(5)
	nom : String
	secteur : String
	nb_employes : int
	pays : String
        logo_url : String
        adresse : Adresse
}
     

class Dossier {
	nom : String {key}
        description : String
}

class Message {
	titre : String
	date_publication : DateTime
	est_commentable : Boolean
    contenu : String
	supprimé : Boolean
	date_derniere_modification : DateTime
}

class Type {
type : String {keÿ}
}


class Relation {
	type_lien : {'ami', 'famille', 'collègue', 'autre'}
}


class Adhesion {
	adhesion_validee : Boolean
        date_demande : Date
}

class Bannissement {
	debut_bannissement : Date
	fin_bannissement : Date
}

class Experience {
	début : Date {key}
	fin : Date
	poste : String
	description : String
}

class Formation {
	nom : String {key}
	niveau : String
	secteur : String
	durée : int
	description : String
}

class SuiviDeFormation {
	début_suivi : Date
	spécialité : String
	mention : String
        commentaire : String
}

Message "*" -- "1" Type : a pour type
SuiviDeFormation "*" -- "1" Formation
Personne *-- "*" SuiviDeFormation
Experience "*" -- "1" Entreprise
Personne *.. "*" Experience
Personne "*" -- "*" Personne
(Personne, Personne) .. Relation
Personne "*" -- "*"  Groupe
(Personne, Groupe) .. Adhesion
Personne "1..*" -- "*" Groupe : administre
Groupe "*" -- "*" Personne
(Groupe, Personne) .. Bannissement
Personne "1" -- "*" Groupe : créé
Personne "*" -- "*" Message : aime
Groupe "0..1" -- "*" Groupe : est sous groupe de
Dossier "1..*" -right- "*" Message : appartient à
Personne "1" -- "*" Message : est l'auteur de 
Message "*" --* Groupe : est posté dans
Message "0..1" -- "*" Message : réponse
Superadministrateur "0..1" -- "*" Groupe : supprime
Superadministrateur --|> Personne
@enduml